<?xml version="1.0" encoding="UTF-8"?>
<svg width="201px" height="97px" viewBox="0 0 201 97" version="1.1" xmlns="http://www.w3.org/2000/svg" xmlns:xlink="http://www.w3.org/1999/xlink">
    <!-- Generator: Sketch 46.2 (44496) - http://www.bohemiancoding.com/sketch -->
    <title>BODlogo [Converted]</title>
    <desc>Created with Sketch.</desc>
    <defs></defs>
    <g id="Page-1" stroke="none" stroke-width="1" fill="none" fill-rule="evenodd">
        <g id="BODlogo-[Converted]" fill-rule="nonzero">
            <path d="M38.83,15.1 L33.77,10.7 L31,16.82 C33.5104241,15.8620858 36.1492259,15.2824256 38.83,15.1 L38.83,15.1 Z" id="Shape" fill="#D6816A"></path>
            <path d="M30.77,16.91 L24.6,14.29 L23.88,21 C25.9613218,19.3028011 28.2833625,17.9244054 30.77,16.91 L30.77,16.91 Z" id="Shape" fill="#D6816A"></path>
            <path d="M23.67,21.13 L17,20.54 L18.38,27.1 C19.8396799,24.8603222 21.622261,22.8486003 23.67,21.13 L23.67,21.13 Z" id="Shape" fill="#D6816A"></path>
            <path d="M18.23,27.33 L11.7,28.84 L15,34.66 C15.7079135,32.0702582 16.7964505,29.5999868 18.23,27.33 L18.23,27.33 Z" id="Shape" fill="#D6816A"></path>
            <path d="M15,34.91 L9.21,38.37 L14.21,42.87 C14.0779875,40.1921928 14.3442225,37.509622 15,34.91 L15,34.91 Z" id="Shape" fill="#D6816A"></path>
            <path d="M14.2,43.13 L9.8,48.19 L15.92,50.94 C14.9640134,48.4359253 14.3843844,45.804005 14.2,43.13 L14.2,43.13 Z" id="Shape" fill="#D6816A"></path>
            <path d="M16,51.19 L13.38,57.36 L20.04,58.08 C18.3616326,55.9946426 17.0002926,53.6729513 16,51.19 Z" id="Shape" fill="#D6816A"></path>
            <path d="M20.23,58.29 L19.64,65 L26.2,63.63 C23.9565721,62.1554178 21.9446176,60.3557802 20.23,58.29 L20.23,58.29 Z" id="Shape" fill="#D6816A"></path>
            <path d="M26.43,63.74 L27.94,70.27 L33.76,66.93 C31.1726008,66.2343093 28.7024784,65.1593175 26.43,63.74 L26.43,63.74 Z" id="Shape" fill="#D6816A"></path>
            <path d="M34,67 L37.45,72.75 L41.95,67.75 C39.2775099,67.8936439 36.5984761,67.6409049 34,67 Z" id="Shape" fill="#D6816A"></path>
            <path d="M42.24,67.76 L47.3,72.16 L50,66 C47.5138925,66.9648676 44.8991089,67.5579113 42.24,67.76 L42.24,67.76 Z" id="Shape" fill="#D6816A"></path>
            <path d="M50.29,65.95 L56.46,68.57 L57.18,61.91 C55.0949759,63.5888503 52.77321,64.9502341 50.29,65.95 Z" id="Shape" fill="#D6816A"></path>
            <path d="M57.39,61.73 L64.07,62.31 L62.7,55.75 C61.2346566,57.9943402 59.4452776,60.0094977 57.39,61.73 Z" id="Shape" fill="#D6816A"></path>
            <path d="M62.83,55.53 L69.37,54 L66,48.21 C65.3100539,50.7929606 64.2418262,53.2596569 62.83,55.53 Z" id="Shape" fill="#D6816A"></path>
            <path d="M66.1,47.95 L71.85,44.5 L66.85,40 C66.9937912,42.6724931 66.7410502,45.3515486 66.1,47.95 L66.1,47.95 Z" id="Shape" fill="#D6816A"></path>
            <path d="M66.86,39.73 L71.26,34.67 L65.14,31.93 C66.0951658,34.4308576 66.674784,37.0593586 66.86,39.73 Z" id="Shape" fill="#D6816A"></path>
            <path d="M65,31.67 L67.62,25.5 L61,24.78 C62.6657288,26.8669003 64.013646,29.1886876 65,31.67 L65,31.67 Z" id="Shape" fill="#D6816A"></path>
            <path d="M60.83,24.58 L61.41,17.9 L54.85,19.28 C57.0937351,20.7421751 59.1088722,22.5281662 60.83,24.58 L60.83,24.58 Z" id="Shape" fill="#D6816A"></path>
            <path d="M54.63,19.13 L53.12,12.6 L47.3,15.93 C49.8881549,16.6282593 52.3583844,17.7066678 54.63,19.13 L54.63,19.13 Z" id="Shape" fill="#D6816A"></path>
            <path d="M47,15.86 L43.55,10.11 L39.05,15.11 C41.7224693,14.9673842 44.4013521,15.220109 47,15.86 L47,15.86 Z" id="Shape" fill="#D6816A"></path>
            <polygon id="Shape" fill="#6B8774" points="19.88 27.83 40.77 41.19 38.94 32.83"></polygon>
            <polygon id="Shape" fill="#6B8774" points="27.41 62.09 40.77 41.19 32.42 43.03"></polygon>
            <polygon id="Shape" fill="#6B8774" points="61.67 54.55 40.77 41.19 42.61 49.54"></polygon>
            <polygon id="Shape" fill="#6B8774" points="54.13 20.29 40.77 41.19 49.13 39.35"></polygon>
            <path d="M16.16,46.6 C13.9632557,36.6384278 17.9862521,26.3347819 26.3516991,20.4971536 C34.717146,14.6595252 45.7761153,14.4385798 54.3680518,19.9374191 C62.9599882,25.4362585 67.39132,35.5709966 65.5942114,45.6123614 C63.7971027,55.6537262 56.1257848,63.6224464 46.16,65.8 C32.5763453,68.7680689 19.1542264,60.1779128 16.16,46.6 Z M46.63,67.82 C61.3363806,64.5914974 70.6433491,50.0551317 67.4206698,35.3474739 C64.1979904,20.6398161 49.6653109,11.3270926 34.9563783,14.5439483 C20.2474456,17.7608039 10.9289687,32.2897948 14.14,47 C15.6836204,54.0715514 19.9752477,60.2393332 26.0694146,64.1445519 C32.1635815,68.0497706 39.5602872,69.3720193 46.63,67.82 Z" id="Shape" fill="#C24836"></path>
            <polygon id="Shape" fill="#FFFFFF" points="0 50.16 40.77 41.19 36.17 48.39"></polygon>
            <polygon id="Shape" fill="#FFFFFF" points="80.72 32.4 40.77 41.19 45.38 33.98"></polygon>
            <polygon id="Shape" stroke="#C24836" stroke-width="0.88" fill="#FFFFFF" points="38.94 32.83 19.88 27.83 32.42 43.03 27.41 62.09 42.61 49.54 61.67 54.55 49.13 39.35 54.13 20.29"></polygon>
            <polygon id="Shape" fill="#C95D48" points="19.88 27.83 40.77 41.19 32.42 43.03"></polygon>
            <polygon id="Shape" fill="#C95D48" points="27.41 62.09 40.77 41.19 42.61 49.54"></polygon>
            <polygon id="Shape" fill="#C95D48" points="61.67 54.55 40.77 41.19 49.13 39.35"></polygon>
            <polygon id="Shape" fill="#C95D48" points="54.13 20.29 40.77 41.19 38.94 32.83"></polygon>
            <polygon id="Shape" fill="#B5121B" points="31.71 0 40.77 41.19 45.38 33.98"></polygon>
            <polygon id="Shape" fill="#B5121B" points="0 50.16 40.77 41.19 33.57 36.58"></polygon>
            <polygon id="Shape" fill="#B5121B" points="50.2 84.03 40.77 41.19 36.17 48.39"></polygon>
            <polygon id="Shape" fill="#B5121B" points="80.72 32.4 40.77 41.19 47.98 45.79"></polygon>
            <polygon id="Shape" fill="#FFFFFF" points="31.71 0 40.77 41.19 33.57 36.58"></polygon>
            <polygon id="Shape" fill="#FFFFFF" points="50.2 84.03 40.77 41.19 47.98 45.79"></polygon>
            <path d="M78.51,41 C78.51,38.64 77.8,38.25 76.05,37.68 L74.44,37.14 L74.44,36.9 L86.84,36.9 C94.45,36.9 95.7,40.44 95.7,43.08 C95.7,46.62 92.59,48.29 88.95,48.9 L88.95,49 C92.7,49.36 97.13,50.89 97.1,55.39 C97.1,60.07 92.6,62.28 86.52,62.28 L74.43,62.28 L74.43,62.03 L76,61.55 C77.75,60.98 78.46,60.55 78.46,58.55 L78.51,41 Z M85.83,48.21 C90.01,48.21 91.76,46.07 91.76,43.14 C91.76,40.71 90.15,38.32 85.51,38.32 L81.9,38.32 C81.83,39.21 81.79,40.07 81.79,40.96 L81.79,48.21 L85.83,48.21 Z M81.83,58.04 C81.83,58.93 81.83,59.79 81.94,60.68 L86.76,60.68 C90.97,60.68 93.19,58.68 93.19,55.32 C93.19,51.5 89.69,49.85 86.37,49.85 L81.79,49.85 L81.83,58.04 Z" id="Shape" fill="#243849"></path>
            <path d="M114.3,54.45 C114.3,59.31 111.13,62.8 106.2,62.8 C101.27,62.8 98.1,59.31 98.1,54.45 C98.1,49.59 101.27,46.1 106.2,46.1 C111.13,46.1 114.3,49.6 114.3,54.45 Z M101.22,54.45 C101.22,57.88 102.39,61.72 106.22,61.72 C110.05,61.72 111.22,57.88 111.22,54.45 C111.22,51.02 110.05,47.18 106.22,47.18 C102.39,47.18 101.25,51 101.22,54.45 Z" id="Shape" fill="#243849"></path>
            <path d="M132.4,54.45 C132.4,59.31 129.23,62.8 124.3,62.8 C119.37,62.8 116.2,59.31 116.2,54.45 C116.2,49.59 119.37,46.1 124.3,46.1 C129.23,46.1 132.4,49.6 132.4,54.45 Z M119.32,54.45 C119.32,57.88 120.49,61.72 124.32,61.72 C128.15,61.72 129.32,57.88 129.32,54.45 C129.32,51.02 128.15,47.18 124.32,47.18 C120.49,47.18 119.35,51 119.32,54.45 L119.32,54.45 Z" id="Shape" fill="#243849"></path>
            <path d="M135,42.64 C135,40.86 134.33,40.58 132,39.94 L132,39.72 L137.56,39.72 L137.56,53.09 L141.78,49.79 C142.92,48.9 143.72,48.17 143.72,47.79 C143.72,47.06 142.72,46.93 142.32,46.79 L142.32,46.57 L148.23,46.57 L148.23,46.79 C146.978763,47.3270795 145.813033,48.0447113 144.77,48.92 L140.2,52.57 L147.2,60.67 C147.724573,61.3192998 148.415936,61.8136244 149.2,62.1 L149.2,62.32 L142.82,62.32 L142.82,62.1 C143.68,61.97 144.19,61.72 144.19,61.34 C144.19,61.12 143.87,60.77 143.46,60.26 L137.62,53.4 L137.62,59.6 C137.62,61.06 138.16,61.44 140.62,62.11 L140.62,62.33 L132,62.33 L132,62.11 C134.51,61.44 135,61.11 135,59.6 L135,42.64 Z" id="Shape" fill="#243849"></path>
            <path d="M150.88,56.74 L151.1,56.74 C151.77,59.44 153.2,61.74 156.1,61.74 C158.77,61.74 159.78,60.31 159.78,58.63 C159.78,54.28 150.86,56.63 150.86,50.72 C150.86,48.05 153.02,46.11 156.61,46.11 C158.86,46.11 159.61,46.71 160.8,46.71 C161.18,46.71 161.43,46.49 161.72,46.11 L161.94,46.11 L161.94,51.76 L161.72,51.76 C160.86,49.32 159.53,47.19 156.72,47.19 C155.919357,47.1088179 155.121266,47.366326 154.519057,47.9001458 C153.916847,48.4339656 153.565455,49.1954001 153.55,50 C153.55,54.61 162.66,51.84 162.66,58.1 C162.66,60.86 160.15,62.77 156.66,62.77 C155.074867,62.7706918 153.499304,62.5244047 151.99,62.04 C151.58142,62.1006033 151.23936,62.3811693 151.1,62.77 L150.88,62.77 L150.88,56.74 Z" id="Shape" fill="#243849"></path>
            <path d="M187.27,55 C187.27,59.54 184.27,62.79 179.71,62.79 C175.15,62.79 172.15,59.53 172.15,55 C172.15,50.47 175.15,47.21 179.71,47.21 C184.27,47.21 187.27,50.45 187.27,55 Z M175.06,55 C175.06,58.2 176.16,61.79 179.71,61.79 C183.26,61.79 184.33,58.2 184.36,55 C184.39,51.8 183.26,48.21 179.71,48.21 C176.16,48.21 175.09,51.78 175.05,55 L175.06,55 Z" id="Shape" fill="#243849"></path>
            <path d="M191.18,48.84 L188,48.84 L188,47.84 L191.14,47.84 L191.14,45 C191.14,41.83 193.57,40.76 195.56,40.76 C199.29,40.76 199.95,43.04 199.95,43.96 C199.95,44.29 199.95,44.61 199.89,44.96 L197.25,44.96 C197.449539,44.5722687 197.562154,44.1456983 197.58,43.71 C197.60746,43.1889969 197.419471,42.6796254 197.060132,42.3013742 C196.700794,41.923123 196.201726,41.7092769 195.68,41.71 C194.23,41.71 193.52,42.78 193.52,44.35 L193.52,47.76 L197.64,47.76 L197.64,48.76 L193.52,48.76 L193.52,59.78 C193.52,61.14 194.02,61.5 196.34,62.12 L196.34,62.33 L188.34,62.33 L188.34,62.12 C190.68,61.5 191.16,61.12 191.16,59.78 L191.18,48.84 Z" id="Shape" fill="#243849"></path>
            <path d="M65.44,70.9 C65.44,68.8 64.81,68.45 63.25,67.9 L61.82,67.42 L61.82,67.2 L72.49,67.2 C82.59,67.2 84.69,74.25 84.69,78.51 C84.69,83.78 80.97,89.82 72.3,89.82 L61.82,89.82 L61.82,89.6 L63.25,89.12 C64.81,88.61 65.44,88.26 65.44,86.49 L65.44,70.9 Z M68.36,86 C68.36,86.79 68.36,87.56 68.45,88.35 L72.39,88.35 C78.52,88.35 80.93,83.71 80.93,78.22 C80.93,71.74 77.47,68.47 71.37,68.47 L68.46,68.47 C68.4,69.26 68.37,70.02 68.37,70.82 L68.36,86 Z" id="Shape" fill="#243849"></path>
            <path d="M88.62,77 C88.62,75.22 87.96,74.94 85.62,74.3 L85.62,74.1 L91.18,74.1 L91.18,87.1 C91.18,88.56 91.72,88.94 94.18,89.61 L94.18,89.83 L85.61,89.83 L85.61,89.61 C88.12,88.94 88.61,88.61 88.61,87.1 L88.62,77 Z M89.86,66.74 C90.8904995,66.745467 91.724533,67.5795005 91.73,68.61 C91.7326781,69.106771 91.5365209,69.5839704 91.1852456,69.9352456 C90.8339704,70.2865209 90.356771,70.4826781 89.86,70.48 C88.8449119,70.4694292 88.0215438,69.6549145 88,68.64 C88.0159185,67.6177674 88.8378675,66.7913994 89.86,66.77 L89.86,66.74 Z" id="Shape" fill="#243849"></path>
            <path d="M95.1,84.26 L95.32,84.26 C95.99,86.96 97.41,89.26 100.32,89.26 C102.99,89.26 104,87.83 104,86.15 C104,81.8 95.08,84.15 95.08,78.24 C95.08,75.57 97.24,73.63 100.83,73.63 C103.09,73.63 103.83,74.23 105.02,74.23 C105.4,74.23 105.66,74.01 105.94,73.63 L106.16,73.63 L106.16,79.28 L105.94,79.28 C105.08,76.84 103.75,74.71 100.94,74.71 C100.14064,74.645952 99.3507725,74.9180879 98.7605,75.4609108 C98.1702275,76.0037338 97.8330071,76.7680839 97.83,77.57 C97.83,82.18 106.95,79.41 106.95,85.67 C106.95,88.43 104.44,90.34 100.95,90.34 C99.3648417,90.3410179 97.7892288,90.094723 96.28,89.61 C95.8714198,89.6706033 95.5293599,89.9511693 95.39,90.34 L95.1,90.34 L95.1,84.26 Z" id="Shape" fill="#243849"></path>
            <path d="M121,79.22 L120.78,79.22 C120.49,78.3 119.38,74.71 115.89,74.71 C112.05,74.71 111,78.58 111,81.71 C111,84.84 112.17,88.38 116,88.38 C118.168988,88.3537151 120.123103,87.0639992 121,85.08 L121.57,85.3 C120.43,88.63 118.08,90.3 115.15,90.3 C110.04,90.3 107.85,86.3 107.85,81.95 C107.85,77.28 111.06,73.6 115.6,73.6 C116.947975,73.7032149 118.285557,73.9138842 119.6,74.23 C120.076221,74.2884516 120.536095,74.034311 120.74,73.6 L121,73.6 L121,79.22 Z" id="Shape" fill="#243849"></path>
            <path d="M139.27,82 C139.27,86.86 136.09,90.35 131.17,90.35 C126.25,90.35 123.07,86.86 123.07,82 C123.07,77.14 126.25,73.65 131.17,73.65 C136.09,73.65 139.27,77.12 139.27,82 Z M126.19,82 C126.19,85.43 127.36,89.27 131.19,89.27 C135.02,89.27 136.19,85.43 136.19,82 C136.19,78.57 135.02,74.73 131.19,74.73 C127.36,74.73 126.21,78.55 126.18,82 L126.19,82 Z" id="Shape" fill="#243849"></path>
            <path d="M139.88,77.15 C138.96,75.02 138.29,74.55 137.24,74.32 L137.24,74.1 L144.77,74.1 L144.77,74.32 L143.91,74.54 C142.7,74.83 142.51,75.05 142.51,75.81 C142.667039,76.6210522 142.946928,77.4033906 143.34,78.13 L147.09,86.93 L147.15,86.93 L151.15,77.5 C151.424983,76.9503201 151.607431,76.3590533 151.69,75.75 C151.69,74.92 150.86,74.64 149.91,74.42 L149.5,74.33 L149.5,74.1 L155.38,74.1 L155.38,74.32 C154.3,74.51 153.44,75.59 152.81,77.05 L147.19,90.13 L145.7,90.13 L139.88,77.15 Z" id="Shape" fill="#243849"></path>
            <path d="M157.57,81.47 L157.57,81.91 C157.57,85.15 158.84,88.36 162.57,88.42 C164.86659,88.5073166 166.997415,87.2280367 168,85.16 L168.54,85.41 C167.17,88.84 165.21,90.33 161.74,90.33 C156.85,90.33 154.44,86.62 154.44,81.98 C154.44,77.34 157.44,73.66 162,73.63 C165.87,73.63 168.8,76.05 168.8,81.09 L168.8,81.47 L157.57,81.47 Z M164.18,80.39 C165.61,80.39 165.7,79.47 165.7,78.74 C165.7,77.12 164.7,74.74 162.17,74.74 C158.96,74.74 157.79,77.66 157.63,80.42 L164.18,80.39 Z" id="Shape" fill="#243849"></path>
            <path d="M172,77 C172,75.22 171.33,74.94 169,74.3 L169,74.1 L174.4,74.1 L174.4,77.18 L174.46,77.18 C175.38,75.43 176.84,73.62 179.03,73.62 C181.22,73.62 182.71,75.02 182.71,76.99 C182.697777,77.4391439 182.634026,77.8853994 182.52,78.32 L179.52,78.32 C179.725518,77.8709641 179.834533,77.3838026 179.84,76.89 C179.850113,76.5076238 179.696331,76.1391529 179.417395,75.8774115 C179.138459,75.6156702 178.760961,75.4856117 178.38,75.52 C176.369382,75.8185144 174.814952,77.4387401 174.6,79.46 L174.6,87.11 C174.6,88.57 175.14,88.95 177.6,89.62 L177.6,89.84 L169,89.84 L169,89.62 C171.51,88.95 172,88.62 172,87.11 L172,77 Z" id="Shape" fill="#243849"></path>
            <path d="M196.49,78.26 C196.895142,77.4792948 197.184828,76.6439207 197.35,75.78 C197.35,74.99 195.96,74.64 195.16,74.32 L195.16,74.1 L201,74.1 L201,74.32 C199.794886,74.8398742 198.862746,75.8409276 198.43,77.08 L191.76,92.8 C190.9,94.87 190.11,96.39 187.41,96.39 C185.95,96.39 184.17,95.47 184.17,93.6 C184.170916,93.141544 184.204333,92.6837297 184.27,92.23 L186.68,92.23 C186.520669,92.6790331 186.446072,93.1537405 186.46,93.63 C186.437195,94.0264606 186.582632,94.4141573 186.860565,94.6978016 C187.138499,94.981446 187.523158,95.1347375 187.92,95.12 C188.92,95.12 189.54,94.33 190.08,93.06 L191.38,90.06 L185.31,76.56 C184.876193,75.4988338 183.993142,74.6854008 182.9,74.34 L182.9,74.1 L190.46,74.1 L190.46,74.32 C189.28,74.6 188.23,74.89 188.23,75.84 C188.346076,76.8499397 188.64781,77.8297286 189.12,78.73 L192.84,87 L192.9,87 L196.49,78.26 Z" id="Shape" fill="#243849"></path>
        </g>
    </g>
</svg>