<!DOCTYPE HTML PUBLIC"-/W3C//DTD XHTML 1.0 Strict//EN" "http://www.w3.org/TR/xhtml1/DTD/xhtml1-strict.dtd">
<html xmlns="http://www.w3c.org/1999/xhtml">

<head>
<meta http-equiv="content-type" content="text/html; charset=iso-8859-1"/>
    <title>WhileLogic</title>

</head>
<html>
<body>
    <?php
    
        $Count=0;
       
        while($Count>100){
            die("here");
            $Numbers[] = $Count;
            
            ++$Count;
            
        foreach($Count as $CurNum =>$Numbers)
            echo"<p>$CurNum is $Numbers</p>";
        }
    ?>


   
</body>
</html>

